mc20_13TeV.700320.Sh_2211_Zee_maxHTpTV2_BFilter.deriv.DAOD_PHYSLITE.e8351_s3681_r13144_p6490
mc20_13TeV.700320.Sh_2211_Zee_maxHTpTV2_BFilter.deriv.DAOD_PHYSLITE.e8351_s3681_r13145_p6490
mc20_13TeV.700320.Sh_2211_Zee_maxHTpTV2_BFilter.deriv.DAOD_PHYSLITE.e8351_s3681_r13167_p6490


mc20_13TeV.700321.Sh_2211_Zee_maxHTpTV2_CFilterBVeto.deriv.DAOD_PHYSLITE.e8351_s3681_r13144_p6490
mc20_13TeV.700321.Sh_2211_Zee_maxHTpTV2_CFilterBVeto.deriv.DAOD_PHYSLITE.e8351_s3681_r13145_p6490
mc20_13TeV.700321.Sh_2211_Zee_maxHTpTV2_CFilterBVeto.deriv.DAOD_PHYSLITE.e8351_s3681_r13167_p6490


mc20_13TeV.700322.Sh_2211_Zee_maxHTpTV2_CVetoBVeto.deriv.DAOD_PHYSLITE.e8351_s3681_r13144_p6490
mc20_13TeV.700322.Sh_2211_Zee_maxHTpTV2_CVetoBVeto.deriv.DAOD_PHYSLITE.e8351_s3681_r13145_p6490
mc20_13TeV.700322.Sh_2211_Zee_maxHTpTV2_CVetoBVeto.deriv.DAOD_PHYSLITE.e8351_s3681_r13167_p6490


mc20_13TeV.700323.Sh_2211_Zmumu_maxHTpTV2_BFilter.deriv.DAOD_PHYSLITE.e8351_s3681_r13144_p6490
mc20_13TeV.700323.Sh_2211_Zmumu_maxHTpTV2_BFilter.deriv.DAOD_PHYSLITE.e8351_s3681_r13145_p6490
mc20_13TeV.700323.Sh_2211_Zmumu_maxHTpTV2_BFilter.deriv.DAOD_PHYSLITE.e8351_s3681_r13167_p6490


mc20_13TeV.700324.Sh_2211_Zmumu_maxHTpTV2_CFilterBVeto.deriv.DAOD_PHYSLITE.e8351_s3681_r13144_p6490
mc20_13TeV.700324.Sh_2211_Zmumu_maxHTpTV2_CFilterBVeto.deriv.DAOD_PHYSLITE.e8351_s3681_r13145_p6490
mc20_13TeV.700324.Sh_2211_Zmumu_maxHTpTV2_CFilterBVeto.deriv.DAOD_PHYSLITE.e8351_s3681_r13167_p6490


mc20_13TeV.700325.Sh_2211_Zmumu_maxHTpTV2_CVetoBVeto.deriv.DAOD_PHYSLITE.e8351_s3681_r13144_p6490
mc20_13TeV.700325.Sh_2211_Zmumu_maxHTpTV2_CVetoBVeto.deriv.DAOD_PHYSLITE.e8351_s3681_r13145_p6490
mc20_13TeV.700325.Sh_2211_Zmumu_maxHTpTV2_CVetoBVeto.deriv.DAOD_PHYSLITE.e8351_s3681_r13167_p6490


mc20_13TeV.700326.Sh_2211_Ztautau_LL_maxHTpTV2_BFilter.deriv.DAOD_PHYSLITE.e8351_s3681_r13144_p6490
mc20_13TeV.700326.Sh_2211_Ztautau_LL_maxHTpTV2_BFilter.deriv.DAOD_PHYSLITE.e8351_s3681_r13145_p6490
mc20_13TeV.700326.Sh_2211_Ztautau_LL_maxHTpTV2_BFilter.deriv.DAOD_PHYSLITE.e8351_s3681_r13167_p6490


mc20_13TeV.700327.Sh_2211_Ztautau_LL_maxHTpTV2_CFilterBVeto.deriv.DAOD_PHYSLITE.e8351_s3681_r13144_p6490
mc20_13TeV.700327.Sh_2211_Ztautau_LL_maxHTpTV2_CFilterBVeto.deriv.DAOD_PHYSLITE.e8351_s3681_r13145_p6490
mc20_13TeV.700327.Sh_2211_Ztautau_LL_maxHTpTV2_CFilterBVeto.deriv.DAOD_PHYSLITE.e8351_s3681_r13167_p6490


mc20_13TeV.700328.Sh_2211_Ztautau_LL_maxHTpTV2_CVetoBVeto.deriv.DAOD_PHYSLITE.e8351_s3681_r13144_p6490
mc20_13TeV.700328.Sh_2211_Ztautau_LL_maxHTpTV2_CVetoBVeto.deriv.DAOD_PHYSLITE.e8351_s3681_r13145_p6490
mc20_13TeV.700328.Sh_2211_Ztautau_LL_maxHTpTV2_CVetoBVeto.deriv.DAOD_PHYSLITE.e8351_s3681_r13167_p6490


mc20_13TeV.700329.Sh_2211_Ztautau_LH_maxHTpTV2_BFilter.deriv.DAOD_PHYSLITE.e8351_s3681_r13144_p6490
mc20_13TeV.700329.Sh_2211_Ztautau_LH_maxHTpTV2_BFilter.deriv.DAOD_PHYSLITE.e8351_s3681_r13145_p6490
mc20_13TeV.700329.Sh_2211_Ztautau_LH_maxHTpTV2_BFilter.deriv.DAOD_PHYSLITE.e8351_s3681_r13167_p6490


mc20_13TeV.700330.Sh_2211_Ztautau_LH_maxHTpTV2_CFilterBVeto.deriv.DAOD_PHYSLITE.e8351_s3681_r13144_p6490
mc20_13TeV.700330.Sh_2211_Ztautau_LH_maxHTpTV2_CFilterBVeto.deriv.DAOD_PHYSLITE.e8351_s3681_r13145_p6490
mc20_13TeV.700330.Sh_2211_Ztautau_LH_maxHTpTV2_CFilterBVeto.deriv.DAOD_PHYSLITE.e8351_s3681_r13167_p6490


mc20_13TeV.700331.Sh_2211_Ztautau_LH_maxHTpTV2_CVetoBVeto.deriv.DAOD_PHYSLITE.e8351_s3681_r13144_p6490
mc20_13TeV.700331.Sh_2211_Ztautau_LH_maxHTpTV2_CVetoBVeto.deriv.DAOD_PHYSLITE.e8351_s3681_r13145_p6490
mc20_13TeV.700331.Sh_2211_Ztautau_LH_maxHTpTV2_CVetoBVeto.deriv.DAOD_PHYSLITE.e8351_s3681_r13167_p6490


mc20_13TeV.700332.Sh_2211_Ztautau_HH_maxHTpTV2_BFilter.deriv.DAOD_PHYSLITE.e8351_s3681_r13144_p6490
mc20_13TeV.700332.Sh_2211_Ztautau_HH_maxHTpTV2_BFilter.deriv.DAOD_PHYSLITE.e8351_s3681_r13145_p6490
mc20_13TeV.700332.Sh_2211_Ztautau_HH_maxHTpTV2_BFilter.deriv.DAOD_PHYSLITE.e8351_s3681_r13167_p6490


mc20_13TeV.700333.Sh_2211_Ztautau_HH_maxHTpTV2_CFilterBVeto.deriv.DAOD_PHYSLITE.e8351_s3681_r13144_p6490
mc20_13TeV.700333.Sh_2211_Ztautau_HH_maxHTpTV2_CFilterBVeto.deriv.DAOD_PHYSLITE.e8351_s3681_r13145_p6490
mc20_13TeV.700333.Sh_2211_Ztautau_HH_maxHTpTV2_CFilterBVeto.deriv.DAOD_PHYSLITE.e8351_s3681_r13167_p6490


mc20_13TeV.700334.Sh_2211_Ztautau_HH_maxHTpTV2_CVetoBVeto.deriv.DAOD_PHYSLITE.e8351_s3681_r13144_p6490
mc20_13TeV.700334.Sh_2211_Ztautau_HH_maxHTpTV2_CVetoBVeto.deriv.DAOD_PHYSLITE.e8351_s3681_r13145_p6490
mc20_13TeV.700334.Sh_2211_Ztautau_HH_maxHTpTV2_CVetoBVeto.deriv.DAOD_PHYSLITE.e8351_s3681_r13167_p6490


mc20_13TeV.700335.Sh_2211_Znunu_pTV2_BFilter.deriv.DAOD_PHYSLITE.e8351_s3681_r13144_p6490
mc20_13TeV.700335.Sh_2211_Znunu_pTV2_BFilter.deriv.DAOD_PHYSLITE.e8351_s3681_r13145_p6490
mc20_13TeV.700335.Sh_2211_Znunu_pTV2_BFilter.deriv.DAOD_PHYSLITE.e8351_s3681_r13167_p6490


mc20_13TeV.700336.Sh_2211_Znunu_pTV2_CFilterBVeto.deriv.DAOD_PHYSLITE.e8351_s3681_r13144_p6490
mc20_13TeV.700336.Sh_2211_Znunu_pTV2_CFilterBVeto.deriv.DAOD_PHYSLITE.e8351_s3681_r13145_p6490
mc20_13TeV.700336.Sh_2211_Znunu_pTV2_CFilterBVeto.deriv.DAOD_PHYSLITE.e8351_s3681_r13167_p6490


mc20_13TeV.700337.Sh_2211_Znunu_pTV2_CVetoBVeto.deriv.DAOD_PHYSLITE.e8351_s3681_r13144_p6490
mc20_13TeV.700337.Sh_2211_Znunu_pTV2_CVetoBVeto.deriv.DAOD_PHYSLITE.e8351_s3681_r13145_p6490
mc20_13TeV.700337.Sh_2211_Znunu_pTV2_CVetoBVeto.deriv.DAOD_PHYSLITE.e8351_s3681_r13167_p6490


mc20_13TeV.700338.Sh_2211_Wenu_maxHTpTV2_BFilter.deriv.DAOD_PHYSLITE.e8351_s3681_r13144_p6490
mc20_13TeV.700338.Sh_2211_Wenu_maxHTpTV2_BFilter.deriv.DAOD_PHYSLITE.e8351_s3681_r13145_p6490
mc20_13TeV.700338.Sh_2211_Wenu_maxHTpTV2_BFilter.deriv.DAOD_PHYSLITE.e8351_s3681_r13167_p6490


mc20_13TeV.700339.Sh_2211_Wenu_maxHTpTV2_CFilterBVeto.deriv.DAOD_PHYSLITE.e8351_s3681_r13144_p6490
mc20_13TeV.700339.Sh_2211_Wenu_maxHTpTV2_CFilterBVeto.deriv.DAOD_PHYSLITE.e8351_s3681_r13145_p6490
mc20_13TeV.700339.Sh_2211_Wenu_maxHTpTV2_CFilterBVeto.deriv.DAOD_PHYSLITE.e8351_s3681_r13167_p6490


mc20_13TeV.700340.Sh_2211_Wenu_maxHTpTV2_CVetoBVeto.deriv.DAOD_PHYSLITE.e8351_s3681_r13144_p6490
mc20_13TeV.700340.Sh_2211_Wenu_maxHTpTV2_CVetoBVeto.deriv.DAOD_PHYSLITE.e8351_s3681_r13145_p6490
mc20_13TeV.700340.Sh_2211_Wenu_maxHTpTV2_CVetoBVeto.deriv.DAOD_PHYSLITE.e8351_s3681_r13167_p6490


mc20_13TeV.700341.Sh_2211_Wmunu_maxHTpTV2_BFilter.deriv.DAOD_PHYSLITE.e8351_s3681_r13144_p6490
mc20_13TeV.700341.Sh_2211_Wmunu_maxHTpTV2_BFilter.deriv.DAOD_PHYSLITE.e8351_s3681_r13145_p6490
mc20_13TeV.700341.Sh_2211_Wmunu_maxHTpTV2_BFilter.deriv.DAOD_PHYSLITE.e8351_s3681_r13167_p6490


mc20_13TeV.700342.Sh_2211_Wmunu_maxHTpTV2_CFilterBVeto.deriv.DAOD_PHYSLITE.e8351_s3681_r13144_p6490
mc20_13TeV.700342.Sh_2211_Wmunu_maxHTpTV2_CFilterBVeto.deriv.DAOD_PHYSLITE.e8351_s3681_r13145_p6490
mc20_13TeV.700342.Sh_2211_Wmunu_maxHTpTV2_CFilterBVeto.deriv.DAOD_PHYSLITE.e8351_s3681_r13167_p6490


mc20_13TeV.700343.Sh_2211_Wmunu_maxHTpTV2_CVetoBVeto.deriv.DAOD_PHYSLITE.e8351_s3681_r13144_p6490
mc20_13TeV.700343.Sh_2211_Wmunu_maxHTpTV2_CVetoBVeto.deriv.DAOD_PHYSLITE.e8351_s3681_r13145_p6490
mc20_13TeV.700343.Sh_2211_Wmunu_maxHTpTV2_CVetoBVeto.deriv.DAOD_PHYSLITE.e8351_s3681_r13167_p6490


mc20_13TeV.700344.Sh_2211_Wtaunu_L_maxHTpTV2_BFilter.deriv.DAOD_PHYSLITE.e8351_s3681_r13144_p6490
mc20_13TeV.700344.Sh_2211_Wtaunu_L_maxHTpTV2_BFilter.deriv.DAOD_PHYSLITE.e8351_s3681_r13145_p6490
mc20_13TeV.700344.Sh_2211_Wtaunu_L_maxHTpTV2_BFilter.deriv.DAOD_PHYSLITE.e8351_s3681_r13167_p6490


mc20_13TeV.700345.Sh_2211_Wtaunu_L_maxHTpTV2_CFilterBVeto.deriv.DAOD_PHYSLITE.e8351_s3681_r13144_p6490
mc20_13TeV.700345.Sh_2211_Wtaunu_L_maxHTpTV2_CFilterBVeto.deriv.DAOD_PHYSLITE.e8351_s3681_r13145_p6490
mc20_13TeV.700345.Sh_2211_Wtaunu_L_maxHTpTV2_CFilterBVeto.deriv.DAOD_PHYSLITE.e8351_s3681_r13167_p6490


mc20_13TeV.700346.Sh_2211_Wtaunu_L_maxHTpTV2_CVetoBVeto.deriv.DAOD_PHYSLITE.e8351_s3681_r13144_p6490
mc20_13TeV.700346.Sh_2211_Wtaunu_L_maxHTpTV2_CVetoBVeto.deriv.DAOD_PHYSLITE.e8351_s3681_r13145_p6490
mc20_13TeV.700346.Sh_2211_Wtaunu_L_maxHTpTV2_CVetoBVeto.deriv.DAOD_PHYSLITE.e8351_s3681_r13167_p6490


mc20_13TeV.700347.Sh_2211_Wtaunu_H_maxHTpTV2_BFilter.deriv.DAOD_PHYSLITE.e8351_s3681_r13144_p6490
mc20_13TeV.700347.Sh_2211_Wtaunu_H_maxHTpTV2_BFilter.deriv.DAOD_PHYSLITE.e8351_s3681_r13145_p6490
mc20_13TeV.700347.Sh_2211_Wtaunu_H_maxHTpTV2_BFilter.deriv.DAOD_PHYSLITE.e8351_s3681_r13167_p6490


mc20_13TeV.700348.Sh_2211_Wtaunu_H_maxHTpTV2_CFilterBVeto.deriv.DAOD_PHYSLITE.e8351_s3681_r13144_p6490
mc20_13TeV.700348.Sh_2211_Wtaunu_H_maxHTpTV2_CFilterBVeto.deriv.DAOD_PHYSLITE.e8351_s3681_r13145_p6490
mc20_13TeV.700348.Sh_2211_Wtaunu_H_maxHTpTV2_CFilterBVeto.deriv.DAOD_PHYSLITE.e8351_s3681_r13167_p6490


mc20_13TeV.700349.Sh_2211_Wtaunu_H_maxHTpTV2_CVetoBVeto.deriv.DAOD_PHYSLITE.e8351_s3681_r13144_p6490
mc20_13TeV.700349.Sh_2211_Wtaunu_H_maxHTpTV2_CVetoBVeto.deriv.DAOD_PHYSLITE.e8351_s3681_r13145_p6490
mc20_13TeV.700349.Sh_2211_Wtaunu_H_maxHTpTV2_CVetoBVeto.deriv.DAOD_PHYSLITE.e8351_s3681_r13167_p6490


mc20_13TeV.701000.Sh_2214_lllljj.deriv.DAOD_PHYSLITE.e8547_s3797_r13144_p6490
mc20_13TeV.701000.Sh_2214_lllljj.deriv.DAOD_PHYSLITE.e8547_s3797_r13145_p6490
mc20_13TeV.701000.Sh_2214_lllljj.deriv.DAOD_PHYSLITE.e8547_s3797_r13167_p6490


mc20_13TeV.701005.Sh_2214_lllvjj.deriv.DAOD_PHYSLITE.e8547_s3797_r13144_p6490
mc20_13TeV.701005.Sh_2214_lllvjj.deriv.DAOD_PHYSLITE.e8547_s3797_r13145_p6490
mc20_13TeV.701005.Sh_2214_lllvjj.deriv.DAOD_PHYSLITE.e8547_s3797_r13167_p6490


mc20_13TeV.701010.Sh_2214_llvvjj_os.deriv.DAOD_PHYSLITE.e8547_s3797_r13144_p6490
mc20_13TeV.701010.Sh_2214_llvvjj_os.deriv.DAOD_PHYSLITE.e8547_s3797_r13145_p6490
mc20_13TeV.701010.Sh_2214_llvvjj_os.deriv.DAOD_PHYSLITE.e8547_s3797_r13167_p6490


mc20_13TeV.701015.Sh_2214_llvvjj_ss.deriv.DAOD_PHYSLITE.e8547_s3797_r13144_p6490
mc20_13TeV.701015.Sh_2214_llvvjj_ss.deriv.DAOD_PHYSLITE.e8547_s3797_r13145_p6490
mc20_13TeV.701015.Sh_2214_llvvjj_ss.deriv.DAOD_PHYSLITE.e8547_s3797_r13167_p6490


mc20_13TeV.701020.Sh_2214_lllljj_Int.deriv.DAOD_PHYSLITE.e8547_s3797_r13144_p6490
mc20_13TeV.701020.Sh_2214_lllljj_Int.deriv.DAOD_PHYSLITE.e8547_s3797_r13145_p6490
mc20_13TeV.701020.Sh_2214_lllljj_Int.deriv.DAOD_PHYSLITE.e8547_s3797_r13167_p6490


mc20_13TeV.701025.Sh_2214_lllvjj_Int.deriv.DAOD_PHYSLITE.e8547_s3797_r13144_p6490
mc20_13TeV.701025.Sh_2214_lllvjj_Int.deriv.DAOD_PHYSLITE.e8547_s3797_r13145_p6490
mc20_13TeV.701025.Sh_2214_lllvjj_Int.deriv.DAOD_PHYSLITE.e8547_s3797_r13167_p6490


mc20_13TeV.701030.Sh_2214_llvvjj_os_Int.deriv.DAOD_PHYSLITE.e8547_s3797_r13144_p6490
mc20_13TeV.701030.Sh_2214_llvvjj_os_Int.deriv.DAOD_PHYSLITE.e8547_s3797_r13145_p6490
mc20_13TeV.701030.Sh_2214_llvvjj_os_Int.deriv.DAOD_PHYSLITE.e8547_s3797_r13167_p6490


mc20_13TeV.701035.Sh_2214_llvvjj_ss_Int.deriv.DAOD_PHYSLITE.e8547_s3797_r13144_p6490
mc20_13TeV.701035.Sh_2214_llvvjj_ss_Int.deriv.DAOD_PHYSLITE.e8547_s3797_r13145_p6490
mc20_13TeV.701035.Sh_2214_llvvjj_ss_Int.deriv.DAOD_PHYSLITE.e8547_s3797_r13167_p6490


mc20_13TeV.701040.Sh_2214_llll.deriv.DAOD_PHYSLITE.e8547_s3797_r13144_p6490
mc20_13TeV.701040.Sh_2214_llll.deriv.DAOD_PHYSLITE.e8547_s3797_r13145_p6490
mc20_13TeV.701040.Sh_2214_llll.deriv.DAOD_PHYSLITE.e8547_s3797_r13167_p6490


mc20_13TeV.701045.Sh_2214_lllv.deriv.DAOD_PHYSLITE.e8547_s3797_r13144_p6490
mc20_13TeV.701045.Sh_2214_lllv.deriv.DAOD_PHYSLITE.e8547_s3797_r13145_p6490
mc20_13TeV.701045.Sh_2214_lllv.deriv.DAOD_PHYSLITE.e8547_s3797_r13167_p6490


mc20_13TeV.701050.Sh_2214_llvv_os.deriv.DAOD_PHYSLITE.e8547_s3797_r13144_p6490
mc20_13TeV.701050.Sh_2214_llvv_os.deriv.DAOD_PHYSLITE.e8547_s3797_r13145_p6490
mc20_13TeV.701050.Sh_2214_llvv_os.deriv.DAOD_PHYSLITE.e8547_s3797_r13167_p6490



mc20_13TeV.701055.Sh_2214_llvv_ss.deriv.DAOD_PHYSLITE.e8547_s3797_r13144_p6490
mc20_13TeV.701055.Sh_2214_llvv_ss.deriv.DAOD_PHYSLITE.e8547_s3797_r13145_p6490
mc20_13TeV.701055.Sh_2214_llvv_ss.deriv.DAOD_PHYSLITE.e8547_s3797_r13167_p6490


mc20_13TeV.701060.Sh_2214_lvvv.deriv.DAOD_PHYSLITE.e8547_s3797_r13144_p6490
mc20_13TeV.701060.Sh_2214_lvvv.deriv.DAOD_PHYSLITE.e8547_s3797_r13145_p6490
mc20_13TeV.701060.Sh_2214_lvvv.deriv.DAOD_PHYSLITE.e8547_s3797_r13167_p6490


mc20_13TeV.701065.Sh_2214_vvvv.deriv.DAOD_PHYSLITE.e8547_s3797_r13144_p6490
mc20_13TeV.701065.Sh_2214_vvvv.deriv.DAOD_PHYSLITE.e8547_s3797_r13145_p6490
mc20_13TeV.701065.Sh_2214_vvvv.deriv.DAOD_PHYSLITE.e8547_s3797_r13167_p6490


mc20_13TeV.701085.Sh_2214_ZqqZll.deriv.DAOD_PHYSLITE.e8547_s3797_r13144_p6490
mc20_13TeV.701085.Sh_2214_ZqqZll.deriv.DAOD_PHYSLITE.e8547_s3797_r13145_p6490
mc20_13TeV.701085.Sh_2214_ZqqZll.deriv.DAOD_PHYSLITE.e8547_s3797_r13167_p6490


mc20_13TeV.701090.Sh_2214_ZbbZll.deriv.DAOD_PHYSLITE.e8547_s3797_r13144_p6490
mc20_13TeV.701090.Sh_2214_ZbbZll.deriv.DAOD_PHYSLITE.e8547_s3797_r13145_p6490
mc20_13TeV.701090.Sh_2214_ZbbZll.deriv.DAOD_PHYSLITE.e8547_s3797_r13167_p6490


mc20_13TeV.701095.Sh_2214_ZqqZvv.deriv.DAOD_PHYSLITE.e8547_s3797_r13144_p6490
mc20_13TeV.701095.Sh_2214_ZqqZvv.deriv.DAOD_PHYSLITE.e8547_s3797_r13145_p6490
mc20_13TeV.701095.Sh_2214_ZqqZvv.deriv.DAOD_PHYSLITE.e8547_s3797_r13167_p6490


mc20_13TeV.701100.Sh_2214_ZbbZvv.deriv.DAOD_PHYSLITE.e8547_s3797_r13144_p6490
mc20_13TeV.701100.Sh_2214_ZbbZvv.deriv.DAOD_PHYSLITE.e8547_s3797_r13145_p6490
mc20_13TeV.701100.Sh_2214_ZbbZvv.deriv.DAOD_PHYSLITE.e8547_s3797_r13167_p6490


mc20_13TeV.701105.Sh_2214_WqqZll.deriv.DAOD_PHYSLITE.e8547_s3797_r13144_p6490
mc20_13TeV.701105.Sh_2214_WqqZll.deriv.DAOD_PHYSLITE.e8547_s3797_r13145_p6490
mc20_13TeV.701105.Sh_2214_WqqZll.deriv.DAOD_PHYSLITE.e8547_s3797_r13167_p6490


mc20_13TeV.701110.Sh_2214_WqqZvv.deriv.DAOD_PHYSLITE.e8547_s3797_r13144_p6490
mc20_13TeV.701110.Sh_2214_WqqZvv.deriv.DAOD_PHYSLITE.e8547_s3797_r13145_p6490
mc20_13TeV.701110.Sh_2214_WqqZvv.deriv.DAOD_PHYSLITE.e8547_s3797_r13167_p6490


mc20_13TeV.701115.Sh_2214_WlvZqq.deriv.DAOD_PHYSLITE.e8547_s3797_r13144_p6490
mc20_13TeV.701115.Sh_2214_WlvZqq.deriv.DAOD_PHYSLITE.e8547_s3797_r13145_p6490
mc20_13TeV.701115.Sh_2214_WlvZqq.deriv.DAOD_PHYSLITE.e8547_s3797_r13167_p6490


mc20_13TeV.701120.Sh_2214_WlvZbb.deriv.DAOD_PHYSLITE.e8547_s3797_r13144_p6490
mc20_13TeV.701120.Sh_2214_WlvZbb.deriv.DAOD_PHYSLITE.e8547_s3797_r13145_p6490
mc20_13TeV.701120.Sh_2214_WlvZbb.deriv.DAOD_PHYSLITE.e8547_s3797_r13167_p6490


mc20_13TeV.701125.Sh_2214_WlvWqq.deriv.DAOD_PHYSLITE.e8547_s3797_r13144_p6490
mc20_13TeV.701125.Sh_2214_WlvWqq.deriv.DAOD_PHYSLITE.e8547_s3797_r13145_p6490
mc20_13TeV.701125.Sh_2214_WlvWqq.deriv.DAOD_PHYSLITE.e8547_s3797_r13167_p6490

