mc20_13TeV.345318.PowhegPythia8EvtGen_NNPDF30_AZNLO_WpH125J_Hyy_Wincl_MINLO.deriv.DAOD_PHYSLITE.e5734_s3681_r13167_p6490
mc20_13TeV.345318.PowhegPythia8EvtGen_NNPDF30_AZNLO_WpH125J_Hyy_Wincl_MINLO.deriv.DAOD_PHYSLITE.e5734_s3681_r13144_p6490
mc20_13TeV.345318.PowhegPythia8EvtGen_NNPDF30_AZNLO_WpH125J_Hyy_Wincl_MINLO.deriv.DAOD_PHYSLITE.e5734_s3681_r13145_p6490
