mc20_13TeV.602485.PhH7EG_H7UE_NNPDF30ME_ttH125_semilep.deriv.DAOD_PHYSLITE.e8531_a907_r14844_p6490
mc20_13TeV.602485.PhH7EG_H7UE_NNPDF30ME_ttH125_semilep.deriv.DAOD_PHYSLITE.e8531_a907_r14845_p6490
mc20_13TeV.602485.PhH7EG_H7UE_NNPDF30ME_ttH125_semilep.deriv.DAOD_PHYSLITE.e8531_a907_r14859_p6490


mc20_13TeV.602486.PhH7EG_H7UE_NNPDF30ME_ttH125_dilep.deriv.DAOD_PHYSLITE.e8531_a907_r14859_p6490
mc20_13TeV.602486.PhH7EG_H7UE_NNPDF30ME_ttH125_dilep.deriv.DAOD_PHYSLITE.e8531_a907_r14860_p6490
mc20_13TeV.602486.PhH7EG_H7UE_NNPDF30ME_ttH125_dilep.deriv.DAOD_PHYSLITE.e8531_a907_r14861_p6490
