mc20_13TeV.304014.MadGraphPythia8EvtGen_A14NNPDF23_3top_SM.deriv.DAOD_PHYSLITE.e4324_s3681_r13144_p6266
mc20_13TeV.304014.MadGraphPythia8EvtGen_A14NNPDF23_3top_SM.deriv.DAOD_PHYSLITE.e4324_s3681_r13145_p6266
mc20_13TeV.304014.MadGraphPythia8EvtGen_A14NNPDF23_3top_SM.deriv.DAOD_PHYSLITE.e4324_s3681_r13167_p6266

