mc23_13p6TeV.701000.Sh_2214_lllljj.deriv.DAOD_PHYS.e8543_s4162_r14622_p6266
mc23_13p6TeV.701005.Sh_2214_lllvjj.deriv.DAOD_PHYS.e8543_s4162_r14622_p6266
mc23_13p6TeV.701010.Sh_2214_llvvjj_os.deriv.DAOD_PHYS.e8543_s4162_r14622_p6266
mc23_13p6TeV.701015.Sh_2214_llvvjj_ss.deriv.DAOD_PHYS.e8543_s4162_r14622_p6266
mc23_13p6TeV.701020.Sh_2214_lllljj_Int.deriv.DAOD_PHYS.e8543_s4162_r14622_p6266
mc23_13p6TeV.701025.Sh_2214_lllvjj_Int.deriv.DAOD_PHYS.e8543_s4162_r14622_p6266
mc23_13p6TeV.701030.Sh_2214_llvvjj_os_Int.deriv.DAOD_PHYS.e8543_s4162_r14622_p6266
mc23_13p6TeV.701035.Sh_2214_llvvjj_ss_Int.deriv.DAOD_PHYS.e8543_s4162_r14622_p6266
mc23_13p6TeV.701040.Sh_2214_llll.deriv.DAOD_PHYS.e8543_s4162_r14622_p6266
mc23_13p6TeV.701045.Sh_2214_lllv.deriv.DAOD_PHYS.e8543_s4162_r14622_p6266
mc23_13p6TeV.701050.Sh_2214_llvv_os.deriv.DAOD_PHYS.e8543_s4162_r14622_p6266
mc23_13p6TeV.701055.Sh_2214_llvv_ss.deriv.DAOD_PHYS.e8543_s4162_r14622_p6266
mc23_13p6TeV.701060.Sh_2214_lvvv.deriv.DAOD_PHYS.e8543_s4162_r14622_p6266
mc23_13p6TeV.701065.Sh_2214_vvvv.deriv.DAOD_PHYS.e8543_s4162_r14622_p6266
mc23_13p6TeV.701085.Sh_2214_ZqqZll.deriv.DAOD_PHYS.e8543_s4162_r14622_p6266
mc23_13p6TeV.701090.Sh_2214_ZbbZll.deriv.DAOD_PHYS.e8543_s4162_r14622_p6266
mc23_13p6TeV.701095.Sh_2214_ZqqZvv.deriv.DAOD_PHYS.e8543_s4162_r14622_p6266
mc23_13p6TeV.701100.Sh_2214_ZbbZvv.deriv.DAOD_PHYS.e8543_s4162_r14622_p6266
mc23_13p6TeV.701105.Sh_2214_WqqZll.deriv.DAOD_PHYS.e8543_s4162_r14622_p6266
mc23_13p6TeV.701110.Sh_2214_WqqZvv.deriv.DAOD_PHYS.e8543_s4162_r14622_p6266
mc23_13p6TeV.701115.Sh_2214_WlvZqq.deriv.DAOD_PHYS.e8543_s4162_r14622_p6266
mc23_13p6TeV.701120.Sh_2214_WlvZbb.deriv.DAOD_PHYS.e8543_s4162_r14622_p6266
mc23_13p6TeV.701125.Sh_2214_WlvWqq.deriv.DAOD_PHYS.e8543_s4162_r14622_p6266
